<svg width="429" height="131" viewBox="0 0 429 131" fill="none" xmlns="http://www.w3.org/2000/svg">
<path fill-rule="evenodd" clip-rule="evenodd" d="M373.326 25.5284C373.255 25.4126 373.191 25.2913 373.125 25.1484C372.944 24.7591 372.854 24.5645 372.717 24.5645C372.581 24.5645 372.491 24.7591 372.31 25.1484C372.243 25.2913 372.18 25.4126 372.109 25.5284C371.726 26.156 371.185 26.6788 370.537 27.0477C370.418 27.1153 370.293 27.1764 370.145 27.2402C369.739 27.4162 369.535 27.5041 369.535 27.637C369.535 27.7699 369.739 27.8579 370.145 28.0339C370.293 28.0977 370.418 28.1588 370.537 28.2264C371.185 28.5953 371.726 29.1181 372.109 29.7457C372.18 29.8615 372.243 29.9828 372.31 30.1257C372.491 30.515 372.581 30.7096 372.717 30.7096C372.854 30.7096 372.944 30.515 373.125 30.1257C373.191 29.9828 373.255 29.8615 373.326 29.7457C373.709 29.1181 374.25 28.5953 374.898 28.2264C375.017 28.1588 375.142 28.0977 375.29 28.0339C375.696 27.8579 375.9 27.7699 375.9 27.637C375.9 27.5041 375.696 27.4162 375.29 27.2402C375.142 27.1764 375.017 27.1153 374.898 27.0477C374.25 26.6788 373.709 26.156 373.326 25.5284Z" stroke="black" stroke-width="0.658411"/>
<path fill-rule="evenodd" clip-rule="evenodd" d="M356.985 36.7399C357.155 36.4505 357.309 36.1472 357.469 35.79C357.906 34.8167 358.125 34.3301 358.453 34.3301C358.782 34.3301 359 34.8167 359.437 35.79C359.597 36.1472 359.751 36.4505 359.922 36.7399C360.847 38.3089 362.153 39.6158 363.717 40.5381C364.004 40.7071 364.306 40.8598 364.662 41.0194C365.644 41.4593 366.135 41.6793 366.135 42.0115C366.135 42.3438 365.644 42.5638 364.662 43.0037C364.306 43.1633 364.004 43.316 363.717 43.485C362.153 44.4073 360.847 45.7142 359.922 47.2832C359.751 47.5726 359.597 47.8759 359.437 48.2331C359 49.2064 358.782 49.693 358.453 49.693C358.125 49.693 357.906 49.2064 357.469 48.2331C357.309 47.8759 357.155 47.5726 356.985 47.2832C356.06 45.7142 354.754 44.4073 353.189 43.485C352.903 43.316 352.601 43.1633 352.245 43.0037C351.263 42.5638 350.772 42.3438 350.772 42.0115C350.772 41.6793 351.263 41.4593 352.245 41.0194C352.601 40.8598 352.903 40.7071 353.189 40.5381C354.754 39.6158 356.06 38.3089 356.985 36.7399Z" fill="black"/>
<path fill-rule="evenodd" clip-rule="evenodd" d="M38.5824 117.797C38.7531 117.507 38.9068 117.204 39.0671 116.847C39.5041 115.873 39.7226 115.387 40.051 115.387C40.3793 115.387 40.5978 115.873 41.0348 116.847C41.1951 117.204 41.3488 117.507 41.5195 117.797C42.4445 119.366 43.7505 120.672 45.315 121.595C45.6016 121.764 45.9034 121.916 46.2595 122.076C47.2414 122.516 47.7324 122.736 47.7324 123.068C47.7324 123.4 47.2414 123.62 46.2595 124.06C45.9034 124.22 45.6016 124.373 45.315 124.542C43.7505 125.464 42.4445 126.771 41.5195 128.34C41.3488 128.629 41.1951 128.933 41.0348 129.29C40.5978 130.263 40.3793 130.75 40.051 130.75C39.7226 130.75 39.5041 130.263 39.0671 129.29C38.9068 128.933 38.7531 128.629 38.5824 128.34C37.6574 126.771 36.3514 125.464 34.7869 124.542C34.5003 124.373 34.1985 124.22 33.8424 124.06C32.8605 123.62 32.3695 123.4 32.3695 123.068C32.3695 122.736 32.8605 122.516 33.8424 122.076C34.1985 121.916 34.5003 121.764 34.7869 121.595C36.3514 120.672 37.6574 119.366 38.5824 117.797Z" fill="black"/>
<path d="M137.318 58.1325C133.54 58.1325 130.198 57.2969 127.291 55.6257C124.421 53.9182 122.151 51.5931 120.48 48.6504C118.845 45.6713 118.027 42.2563 118.027 38.4054C118.027 34.5544 118.845 31.1576 120.48 28.2149C122.151 25.2358 124.421 22.9107 127.291 21.2396C130.198 19.5321 133.54 18.6783 137.318 18.6783C140.079 18.6783 142.604 19.1688 144.893 20.1497C147.218 21.0942 149.216 22.4384 150.888 24.1823C152.595 25.9261 153.903 27.9424 154.811 30.2312L146.582 33.0104C146.038 31.7389 145.293 30.6308 144.348 29.6862C143.44 28.7417 142.386 28.0151 141.187 27.5064C140.025 26.9978 138.735 26.7435 137.318 26.7435C135.32 26.7435 133.54 27.234 131.978 28.2149C130.416 29.1958 129.199 30.5763 128.327 32.3565C127.455 34.1003 127.019 36.1166 127.019 38.4054C127.019 40.6942 127.455 42.7286 128.327 44.5088C129.235 46.2526 130.47 47.6331 132.032 48.6504C133.631 49.6313 135.447 50.1217 137.482 50.1217C138.971 50.1217 140.297 49.8493 141.46 49.3043C142.623 48.7594 143.622 47.9964 144.457 47.0155C145.329 46.0346 146.074 44.9084 146.691 43.6369L154.92 46.4161C154.048 48.7412 152.759 50.7938 151.051 52.574C149.344 54.3178 147.327 55.6802 145.002 56.6611C142.677 57.642 140.116 58.1325 137.318 58.1325ZM165.032 43.3644C165.032 40.4217 165.614 37.9694 166.776 36.0076C167.975 34.0458 169.465 32.5744 171.245 31.5935C173.061 30.6126 174.95 30.1222 176.912 30.1222V38.4054C175.241 38.4054 173.661 38.587 172.171 38.9503C170.718 39.3136 169.537 39.8767 168.629 40.6397C167.721 41.3663 167.267 42.3108 167.267 43.4734L165.032 43.3644ZM158.765 57.4785V30.2312H167.267V57.4785H158.765ZM227.102 57.4785L226.83 51.5931V43.9093C226.83 42.4561 226.703 41.1846 226.448 40.0947C226.194 39.0048 225.74 38.1692 225.086 37.588C224.432 37.0067 223.469 36.716 222.198 36.716C221.18 36.716 220.309 36.9522 219.582 37.4245C218.855 37.8604 218.238 38.478 217.729 39.2773L210.209 36.825C210.826 35.4808 211.662 34.2638 212.716 33.1739C213.805 32.084 215.132 31.2121 216.694 30.5581C218.256 29.9042 220.072 29.5772 222.143 29.5772C224.977 29.5772 227.356 30.0859 229.282 31.1031C231.244 32.1203 232.715 33.5735 233.696 35.4627C234.713 37.3518 235.222 39.6224 235.222 42.2745L235.113 57.4785H227.102ZM219.745 58.1325C216.512 58.1325 214.005 57.4059 212.225 55.9527C210.445 54.4995 209.555 52.4468 209.555 49.7948C209.555 46.9247 210.481 44.7813 212.334 43.3644C214.187 41.9475 216.785 41.2391 220.127 41.2391H227.593V46.6886H223.342C221.526 46.6886 220.218 46.9429 219.418 47.4515C218.619 47.9601 218.22 48.6685 218.22 49.5768C218.22 50.2307 218.51 50.7575 219.091 51.1571C219.709 51.5204 220.545 51.7021 221.598 51.7021C222.652 51.7021 223.56 51.4841 224.323 51.0481C225.122 50.5759 225.74 49.9582 226.176 49.1953C226.612 48.4324 226.83 47.5968 226.83 46.6886H229.064C229.064 50.3215 228.283 53.1371 226.721 55.1352C225.195 57.1334 222.87 58.1325 219.745 58.1325ZM252.117 58.1325C248.884 58.1325 246.468 57.3695 244.87 55.8437C243.307 54.2815 242.526 52.0654 242.526 49.1953V21.73H251.027V47.07C251.027 48.1599 251.227 48.9592 251.627 49.4678C252.027 49.9764 252.644 50.2307 253.48 50.2307C253.807 50.2307 254.188 50.1581 254.624 50.0127C255.06 49.8311 255.46 49.6131 255.823 49.3588L258.766 55.5712C257.894 56.2978 256.84 56.9154 255.605 57.424C254.406 57.8963 253.244 58.1325 252.117 58.1325ZM238.276 37.37V30.2312H257.24V37.37H238.276ZM275.514 58.1325C272.644 58.1325 270.119 57.533 267.94 56.3341C265.76 55.0989 264.034 53.4096 262.763 51.2661C261.527 49.1227 260.91 46.6522 260.91 43.8548C260.91 41.0575 261.509 38.587 262.708 36.4436C263.943 34.3001 265.651 32.6289 267.831 31.4301C270.047 30.1948 272.553 29.5772 275.351 29.5772C278.221 29.5772 280.746 30.1948 282.926 31.4301C285.142 32.6289 286.849 34.3001 288.048 36.4436C289.283 38.587 289.901 41.0575 289.901 43.8548C289.901 46.6522 289.283 49.1227 288.048 51.2661C286.849 53.4096 285.16 55.0989 282.98 56.3341C280.8 57.533 278.312 58.1325 275.514 58.1325ZM275.514 50.2852C276.604 50.2852 277.567 50.0127 278.403 49.4678C279.274 48.9229 279.947 48.1781 280.419 47.2335C280.927 46.2526 281.182 45.1264 281.182 43.8548C281.182 42.5833 280.927 41.4752 280.419 40.5307C279.947 39.5498 279.274 38.7868 278.403 38.2419C277.531 37.6969 276.532 37.4245 275.405 37.4245C274.279 37.4245 273.28 37.6969 272.408 38.2419C271.536 38.7868 270.846 39.5498 270.337 40.5307C269.865 41.4752 269.629 42.5833 269.629 43.8548C269.629 45.1264 269.865 46.2526 270.337 47.2335C270.846 48.1781 271.536 48.9229 272.408 49.4678C273.316 50.0127 274.352 50.2852 275.514 50.2852ZM300.311 43.3644C300.311 40.4217 300.892 37.9694 302.055 36.0076C303.254 34.0458 304.743 32.5744 306.524 31.5935C308.34 30.6126 310.229 30.1222 312.191 30.1222V38.4054C310.52 38.4054 308.939 38.587 307.45 38.9503C305.997 39.3136 304.816 39.8767 303.908 40.6397C303 41.3663 302.545 42.3108 302.545 43.4734L300.311 43.3644ZM294.044 57.4785V30.2312H302.545V57.4785H294.044ZM50.095 102.132C46.3167 102.132 42.9743 101.297 40.0679 99.6257C37.1979 97.9182 34.9273 95.5931 33.2561 92.6504C31.6213 89.6713 30.8038 86.2563 30.8038 82.4054C30.8038 78.5544 31.6213 75.1576 33.2561 72.2149C34.9273 69.2358 37.1979 66.9107 40.0679 65.2396C42.9743 63.5321 46.3167 62.6783 50.095 62.6783C52.856 62.6783 55.3809 63.1688 57.6697 64.1497C59.9948 65.0942 61.993 66.4384 63.6641 68.1823C65.3716 69.9261 66.6795 71.9424 67.5878 74.2312L59.3591 77.0104C58.8141 75.7389 58.0694 74.6308 57.1248 73.6862C56.2165 72.7417 55.163 72.0151 53.9641 71.5064C52.8015 70.9978 51.5118 70.7435 50.095 70.7435C48.0968 70.7435 46.3167 71.234 44.7545 72.2149C43.1923 73.1958 41.9753 74.5763 41.1033 76.3565C40.2314 78.1003 39.7955 80.1166 39.7955 82.4054C39.7955 84.6942 40.2314 86.7286 41.1033 88.5088C42.0116 90.2526 43.2468 91.6331 44.809 92.6504C46.4075 93.6313 48.224 94.1217 50.2584 94.1217C51.748 94.1217 53.074 93.8493 54.2366 93.3043C55.3991 92.7594 56.3982 91.9964 57.2338 91.0155C58.1057 90.0346 58.8504 88.9084 59.4681 87.6369L67.6967 90.4161C66.8248 92.7412 65.5351 94.7938 63.8276 96.574C62.1201 98.3178 60.1038 99.6802 57.7787 100.661C55.4536 101.642 52.8924 102.132 50.095 102.132ZM84.7297 102.132C81.8597 102.132 79.3348 101.533 77.155 100.334C74.9752 99.0989 73.2495 97.4096 71.978 95.2661C70.7428 93.1227 70.1252 90.6522 70.1252 87.8548C70.1252 85.0575 70.7246 82.587 71.9235 80.4436C73.1587 78.3001 74.8662 76.6289 77.046 75.4301C79.2621 74.1948 81.7689 73.5772 84.5663 73.5772C87.4363 73.5772 89.9612 74.1948 92.141 75.4301C94.3571 76.6289 96.0646 78.3001 97.2635 80.4436C98.4987 82.587 99.1163 85.0575 99.1163 87.8548C99.1163 90.6522 98.4987 93.1227 97.2635 95.2661C96.0646 97.4096 94.3753 99.0989 92.1955 100.334C90.0157 101.533 87.5271 102.132 84.7297 102.132ZM84.7297 94.2852C85.8196 94.2852 86.7824 94.0127 87.618 93.4678C88.4899 92.9229 89.162 92.1781 89.6343 91.2335C90.1429 90.2526 90.3972 89.1264 90.3972 87.8548C90.3972 86.5833 90.1429 85.4752 89.6343 84.5307C89.162 83.5498 88.4899 82.7868 87.618 82.2419C86.746 81.6969 85.747 81.4245 84.6208 81.4245C83.4945 81.4245 82.4955 81.6969 81.6235 82.2419C80.7516 82.7868 80.0614 83.5498 79.5527 84.5307C79.0805 85.4752 78.8443 86.5833 78.8443 87.8548C78.8443 89.1264 79.0805 90.2526 79.5527 91.2335C80.0614 92.1781 80.7516 92.9229 81.6235 93.4678C82.5318 94.0127 83.5672 94.2852 84.7297 94.2852ZM117.309 101.479V63.3322H125.81V101.479H117.309ZM147.489 101.479L147.216 95.5931V87.9093C147.216 86.4561 147.089 85.1846 146.835 84.0947C146.581 83.0048 146.127 82.1692 145.473 81.588C144.819 81.0067 143.856 80.716 142.584 80.716C141.567 80.716 140.695 80.9522 139.969 81.4245C139.242 81.8604 138.624 82.478 138.116 83.2773L130.596 80.825C131.213 79.4808 132.049 78.2638 133.102 77.1739C134.192 76.084 135.518 75.2121 137.08 74.5581C138.643 73.9042 140.459 73.5772 142.53 73.5772C145.364 73.5772 147.743 74.0859 149.669 75.1031C151.63 76.1203 153.102 77.5735 154.083 79.4627C155.1 81.3518 155.609 83.6224 155.609 86.2745L155.5 101.479H147.489ZM140.132 102.132C136.899 102.132 134.392 101.406 132.612 99.9527C130.832 98.4995 129.942 96.4468 129.942 93.7948C129.942 90.9247 130.868 88.7813 132.721 87.3644C134.574 85.9475 137.171 85.2391 140.514 85.2391H147.979V90.6886H143.729C141.912 90.6886 140.604 90.9429 139.805 91.4515C139.006 91.9601 138.606 92.6685 138.606 93.5768C138.606 94.2307 138.897 94.7575 139.478 95.1571C140.096 95.5204 140.931 95.7021 141.985 95.7021C143.038 95.7021 143.947 95.4841 144.71 95.0481C145.509 94.5759 146.127 93.9582 146.562 93.1953C146.998 92.4324 147.216 91.5968 147.216 90.6886H149.451C149.451 94.3215 148.67 97.1371 147.107 99.1352C145.582 101.133 143.256 102.132 140.132 102.132ZM160.788 101.479V63.3322H169.289V96.4105L168.853 101.479H160.788ZM177.027 102.132C174.775 102.132 172.886 101.569 171.36 100.443C169.834 99.2806 168.689 97.6276 167.927 95.4841C167.164 93.3406 166.782 90.7976 166.782 87.8548C166.782 84.8758 167.164 82.3327 167.927 80.2256C168.689 78.0821 169.834 76.4473 171.36 75.3211C172.886 74.1585 174.775 73.5772 177.027 73.5772C179.57 73.5772 181.768 74.1585 183.621 75.3211C185.474 76.4473 186.891 78.0821 187.872 80.2256C188.852 82.3327 189.343 84.8758 189.343 87.8548C189.343 90.7976 188.852 93.3406 187.872 95.4841C186.891 97.6276 185.474 99.2806 183.621 100.443C181.768 101.569 179.57 102.132 177.027 102.132ZM174.847 94.2852C175.937 94.2852 176.9 94.0127 177.736 93.4678C178.571 92.9229 179.243 92.1781 179.752 91.2335C180.26 90.2526 180.515 89.1264 180.515 87.8548C180.515 86.5833 180.279 85.4752 179.806 84.5307C179.334 83.5498 178.662 82.7868 177.79 82.2419C176.954 81.6969 175.992 81.4245 174.902 81.4245C173.812 81.4245 172.831 81.6969 171.959 82.2419C171.124 82.7868 170.47 83.5498 169.997 84.5307C169.525 85.5116 169.289 86.6196 169.289 87.8548C169.289 89.1264 169.525 90.2526 169.997 91.2335C170.47 92.1781 171.124 92.9229 171.959 93.4678C172.795 94.0127 173.757 94.2852 174.847 94.2852ZM206.651 102.132C203.781 102.132 201.256 101.533 199.076 100.334C196.896 99.0989 195.171 97.4096 193.899 95.2661C192.664 93.1227 192.046 90.6522 192.046 87.8548C192.046 85.0575 192.646 82.587 193.845 80.4436C195.08 78.3001 196.787 76.6289 198.967 75.4301C201.183 74.1948 203.69 73.5772 206.487 73.5772C209.358 73.5772 211.882 74.1948 214.062 75.4301C216.278 76.6289 217.986 78.3001 219.185 80.4436C220.42 82.587 221.038 85.0575 221.038 87.8548C221.038 90.6522 220.42 93.1227 219.185 95.2661C217.986 97.4096 216.297 99.0989 214.117 100.334C211.937 101.533 209.448 102.132 206.651 102.132ZM206.651 94.2852C207.741 94.2852 208.704 94.0127 209.539 93.4678C210.411 92.9229 211.083 92.1781 211.555 91.2335C212.064 90.2526 212.318 89.1264 212.318 87.8548C212.318 86.5833 212.064 85.4752 211.555 84.5307C211.083 83.5498 210.411 82.7868 209.539 82.2419C208.667 81.6969 207.668 81.4245 206.542 81.4245C205.416 81.4245 204.417 81.6969 203.545 82.2419C202.673 82.7868 201.983 83.5498 201.474 84.5307C201.002 85.4752 200.766 86.5833 200.766 87.8548C200.766 89.1264 201.002 90.2526 201.474 91.2335C201.983 92.1781 202.673 92.9229 203.545 93.4678C204.453 94.0127 205.488 94.2852 206.651 94.2852ZM231.448 87.3644C231.448 84.4217 232.029 81.9694 233.192 80.0076C234.39 78.0458 235.88 76.5744 237.66 75.5935C239.477 74.6126 241.366 74.1222 243.328 74.1222V82.4054C241.656 82.4054 240.076 82.587 238.587 82.9503C237.133 83.3136 235.953 83.8767 235.044 84.6397C234.136 85.3663 233.682 86.3108 233.682 87.4734L231.448 87.3644ZM225.181 101.479V74.2312H233.682V101.479H225.181ZM263.024 101.479L262.752 95.5931V87.9093C262.752 86.4561 262.624 85.1846 262.37 84.0947C262.116 83.0048 261.662 82.1692 261.008 81.588C260.354 81.0067 259.391 80.716 258.119 80.716C257.102 80.716 256.23 80.9522 255.504 81.4245C254.777 81.8604 254.16 82.478 253.651 83.2773L246.131 80.825C246.748 79.4808 247.584 78.2638 248.637 77.1739C249.727 76.084 251.053 75.2121 252.616 74.5581C254.178 73.9042 255.994 73.5772 258.065 73.5772C260.899 73.5772 263.278 74.0859 265.204 75.1031C267.166 76.1203 268.637 77.5735 269.618 79.4627C270.635 81.3518 271.144 83.6224 271.144 86.2745L271.035 101.479H263.024ZM255.667 102.132C252.434 102.132 249.927 101.406 248.147 99.9527C246.367 98.4995 245.477 96.4468 245.477 93.7948C245.477 90.9247 246.403 88.7813 248.256 87.3644C250.109 85.9475 252.706 85.2391 256.049 85.2391H263.514V90.6886H259.264C257.447 90.6886 256.139 90.9429 255.34 91.4515C254.541 91.9601 254.141 92.6685 254.141 93.5768C254.141 94.2307 254.432 94.7575 255.013 95.1571C255.631 95.5204 256.466 95.7021 257.52 95.7021C258.574 95.7021 259.482 95.4841 260.245 95.0481C261.044 94.5759 261.662 93.9582 262.098 93.1953C262.534 92.4324 262.752 91.5968 262.752 90.6886H264.986C264.986 94.3215 264.205 97.1371 262.643 99.1352C261.117 101.133 258.792 102.132 255.667 102.132ZM288.039 102.132C284.806 102.132 282.39 101.37 280.791 99.8437C279.229 98.2815 278.448 96.0654 278.448 93.1953V65.73H286.949V91.07C286.949 92.1599 287.149 92.9592 287.549 93.4678C287.948 93.9764 288.566 94.2307 289.402 94.2307C289.729 94.2307 290.11 94.1581 290.546 94.0127C290.982 93.8311 291.382 93.6131 291.745 93.3588L294.688 99.5712C293.816 100.298 292.762 100.915 291.527 101.424C290.328 101.896 289.165 102.132 288.039 102.132ZM274.198 81.37V74.2312H293.162V81.37H274.198ZM299.377 101.479V74.2312H307.879V101.479H299.377ZM303.628 70.7435C302.357 70.7435 301.23 70.2712 300.249 69.3267C299.305 68.3457 298.833 67.2195 298.833 65.948C298.833 64.6038 299.305 63.4776 300.249 62.5693C301.23 61.6247 302.357 61.1525 303.628 61.1525C304.936 61.1525 306.062 61.6247 307.007 62.5693C307.951 63.4776 308.424 64.6038 308.424 65.948C308.424 67.2195 307.951 68.3457 307.007 69.3267C306.062 70.2712 304.936 70.7435 303.628 70.7435ZM327.135 102.132C324.265 102.132 321.74 101.533 319.561 100.334C317.381 99.0989 315.655 97.4096 314.384 95.2661C313.148 93.1227 312.531 90.6522 312.531 87.8548C312.531 85.0575 313.13 82.587 314.329 80.4436C315.564 78.3001 317.272 76.6289 319.452 75.4301C321.668 74.1948 324.174 73.5772 326.972 73.5772C329.842 73.5772 332.367 74.1948 334.547 75.4301C336.763 76.6289 338.47 78.3001 339.669 80.4436C340.904 82.587 341.522 85.0575 341.522 87.8548C341.522 90.6522 340.904 93.1227 339.669 95.2661C338.47 97.4096 336.781 99.0989 334.601 100.334C332.421 101.533 329.933 102.132 327.135 102.132ZM327.135 94.2852C328.225 94.2852 329.188 94.0127 330.023 93.4678C330.895 92.9229 331.568 92.1781 332.04 91.2335C332.548 90.2526 332.803 89.1264 332.803 87.8548C332.803 86.5833 332.548 85.4752 332.04 84.5307C331.568 83.5498 330.895 82.7868 330.023 82.2419C329.152 81.6969 328.153 81.4245 327.026 81.4245C325.9 81.4245 324.901 81.6969 324.029 82.2419C323.157 82.7868 322.467 83.5498 321.958 84.5307C321.486 85.4752 321.25 86.5833 321.25 87.8548C321.25 89.1264 321.486 90.2526 321.958 91.2335C322.467 92.1781 323.157 92.9229 324.029 93.4678C324.937 94.0127 325.973 94.2852 327.135 94.2852ZM345.665 101.479V74.2312H353.676L354.166 79.2447V101.479H345.665ZM363.212 101.479V87.5279L371.714 85.893V101.479H363.212ZM363.212 87.5279C363.212 86.0747 363.049 84.9303 362.722 84.0947C362.395 83.2228 361.923 82.587 361.305 82.1874C360.724 81.7878 359.997 81.5698 359.125 81.5335C357.491 81.4971 356.255 81.9513 355.42 82.8958C354.584 83.8041 354.166 85.2028 354.166 87.0919H351.605C351.605 84.2219 352.041 81.7878 352.913 79.7896C353.785 77.7552 354.966 76.2111 356.455 75.1576C357.981 74.104 359.743 73.5772 361.741 73.5772C365.047 73.5772 367.536 74.5763 369.207 76.5744C370.878 78.5726 371.714 81.6788 371.714 85.893L363.212 87.5279Z" fill="black"/>
<path d="M193.557 58.1325C190.723 58.1325 188.216 57.533 186.037 56.3341C183.857 55.0989 182.149 53.4096 180.914 51.2661C179.679 49.1227 179.061 46.6522 179.061 43.8548C179.061 41.0211 179.679 38.5325 180.914 36.3891C182.186 34.2456 183.911 32.5744 186.091 31.3756C188.271 30.1767 190.796 29.5772 193.666 29.5772C196.245 29.5772 198.57 30.1948 200.641 31.4301C202.712 32.6653 204.347 34.4999 205.546 36.934C206.781 39.3681 207.399 42.4017 207.399 46.0346H198.952C198.952 43.8548 198.752 42.0384 198.352 40.5852C197.989 39.132 197.39 38.0421 196.554 37.3155C195.755 36.5526 194.683 36.1711 193.339 36.1711C192.067 36.1711 191.014 36.4799 190.178 37.0975C189.343 37.6788 188.725 38.5689 188.325 39.7677C187.926 40.9303 187.726 42.4017 187.726 44.1818C187.726 45.8167 187.998 47.1427 188.543 48.1599C189.125 49.1408 189.869 49.8674 190.778 50.3397C191.686 50.812 192.685 51.0481 193.775 51.0481C195.083 51.0481 196.173 50.7575 197.045 50.1762C197.953 49.595 198.589 48.8502 198.952 47.9419L206.636 50.5577C205.909 52.2652 204.874 53.6821 203.529 54.8083C202.222 55.9345 200.714 56.7701 199.006 57.315C197.299 57.86 195.482 58.1325 193.557 58.1325ZM184.511 46.0346L184.565 40.2037H203.366V46.0346H184.511ZM103.26 101.479V63.3322H111.761V101.479H103.26ZM387.149 102.132C385.369 102.132 383.698 101.878 382.135 101.37C380.609 100.825 379.283 100.08 378.157 99.1352C377.031 98.1543 376.195 96.9736 375.65 95.5931L382.626 92.6504C383.098 93.595 383.752 94.3034 384.588 94.7757C385.423 95.2116 386.277 95.4296 387.149 95.4296C388.057 95.4296 388.766 95.2843 389.274 94.9936C389.783 94.6667 390.037 94.2307 390.037 93.6858C390.037 93.1045 389.765 92.6504 389.22 92.3234C388.711 91.9964 387.966 91.7058 386.985 91.4515L384.642 90.8521C382.099 90.1981 380.137 89.1264 378.757 87.6369C377.412 86.111 376.74 84.349 376.74 82.3509C376.74 79.5535 377.703 77.3919 379.629 75.866C381.554 74.3402 384.224 73.5772 387.639 73.5772C389.565 73.5772 391.254 73.8315 392.707 74.3402C394.197 74.8488 395.432 75.5754 396.413 76.5199C397.43 77.4282 398.157 78.4999 398.593 79.7351L391.835 82.5144C391.581 81.7878 391.054 81.2428 390.255 80.8795C389.492 80.4799 388.638 80.2801 387.694 80.2801C386.895 80.2801 386.277 80.4617 385.841 80.825C385.405 81.152 385.187 81.6061 385.187 82.1874C385.187 82.6234 385.441 83.0048 385.95 83.3318C386.495 83.6224 387.276 83.8949 388.293 84.1492L391.181 84.8576C392.889 85.2936 394.324 85.9657 395.487 86.8739C396.649 87.7459 397.521 88.7813 398.102 89.9801C398.684 91.1427 398.974 92.3961 398.974 93.7403C398.974 95.4478 398.466 96.9373 397.448 98.2088C396.467 99.444 395.087 100.407 393.307 101.097C391.527 101.787 389.474 102.132 387.149 102.132Z" fill="white"/>
<path d="M193.221 49.3012C190.384 49.3012 187.875 48.701 185.692 47.5008C183.51 46.2641 181.8 44.5728 180.564 42.4269C179.327 40.281 178.709 37.8077 178.709 35.0071C178.709 32.17 179.327 29.6786 180.564 27.5326C181.837 25.3867 183.565 23.7136 185.747 22.5133C187.929 21.3131 190.457 20.7129 193.33 20.7129C195.913 20.7129 198.241 21.3312 200.314 22.5679C202.387 23.8045 204.024 25.6413 205.224 28.0782C206.461 30.5151 207.079 33.5522 207.079 37.1894H198.622C198.622 35.007 198.422 33.1885 198.022 31.7336C197.659 30.2787 197.058 29.1876 196.222 28.4601C195.422 27.6963 194.349 27.3144 193.003 27.3144C191.73 27.3144 190.675 27.6236 189.839 28.2419C189.002 28.8238 188.384 29.7149 187.984 30.9152C187.584 32.0791 187.384 33.5522 187.384 35.3344C187.384 36.9711 187.656 38.2987 188.202 39.3171C188.784 40.2992 189.529 41.0266 190.439 41.4994C191.348 41.9723 192.348 42.2087 193.439 42.2087C194.749 42.2087 195.84 41.9177 196.713 41.3357C197.622 40.7538 198.259 40.0082 198.622 39.0989L206.315 41.7177C205.588 43.4271 204.551 44.8456 203.205 45.9732C201.896 47.1007 200.386 47.9372 198.677 48.4828C196.968 49.0284 195.149 49.3012 193.221 49.3012ZM184.165 37.1894L184.219 31.3517H203.042V37.1894H184.165Z" fill="#22F55D"/>
<mask id="path-6-outside-1_1107_81" maskUnits="userSpaceOnUse" x="174.863" y="17" width="32" height="32" fill="black">
<rect fill="white" x="174.863" y="17" width="32" height="32"/>
<path d="M190.975 47.6547C188.138 47.6547 185.628 47.0546 183.446 45.8543C181.264 44.6176 179.554 42.9264 178.318 40.7804C177.081 38.6345 176.463 36.1612 176.463 33.3606C176.463 30.5236 177.081 28.0321 178.318 25.8862C179.591 23.7402 181.318 22.0671 183.501 20.8668C185.683 19.6666 188.211 19.0664 191.084 19.0664C193.667 19.0664 195.994 19.6848 198.068 20.9214C200.141 22.158 201.778 23.9948 202.978 26.4317C204.214 28.8686 204.833 31.9057 204.833 35.5429H196.376C196.376 33.3606 196.176 31.542 195.776 30.0871C195.413 28.6322 194.812 27.5411 193.976 26.8136C193.176 26.0498 192.103 25.6679 190.757 25.6679C189.484 25.6679 188.429 25.9771 187.593 26.5954C186.756 27.1774 186.138 28.0685 185.738 29.2687C185.338 30.4326 185.137 31.9057 185.137 33.6879C185.137 35.3246 185.41 36.6522 185.956 37.6706C186.538 38.6527 187.283 39.3801 188.193 39.8529C189.102 40.3258 190.102 40.5622 191.193 40.5622C192.503 40.5622 193.594 40.2712 194.467 39.6893C195.376 39.1073 196.013 38.3617 196.376 37.4524L204.069 40.0712C203.342 41.7806 202.305 43.1991 200.959 44.3267C199.65 45.4542 198.14 46.2907 196.431 46.8363C194.721 47.3819 192.903 47.6547 190.975 47.6547ZM181.919 35.5429L181.973 29.7052H200.796V35.5429H181.919Z"/>
</mask>
<path d="M183.446 45.8543L182.856 46.8963L182.862 46.9001L182.869 46.9037L183.446 45.8543ZM178.318 40.7804L179.355 40.1824L178.318 40.7804ZM178.318 25.8862L177.288 25.2751L177.284 25.2816L177.28 25.2882L178.318 25.8862ZM183.501 20.8668L182.924 19.8174L183.501 20.8668ZM198.068 20.9214L197.454 21.95L198.068 20.9214ZM202.978 26.4317L201.903 26.9609L201.907 26.9673L201.91 26.9737L202.978 26.4317ZM204.833 35.5429V36.7406H206.03V35.5429H204.833ZM196.376 35.5429H195.179V36.7406H196.376V35.5429ZM195.776 30.0871L194.614 30.3776L194.618 30.3912L194.621 30.4047L195.776 30.0871ZM193.976 26.8136L193.149 27.68L193.169 27.6992L193.19 27.7174L193.976 26.8136ZM187.593 26.5954L188.277 27.5786L188.291 27.5688L188.304 27.5586L187.593 26.5954ZM185.738 29.2687L186.87 29.6581L186.874 29.6475L185.738 29.2687ZM185.956 37.6706L184.9 38.2362L184.912 38.259L184.925 38.2812L185.956 37.6706ZM188.193 39.8529L188.745 38.7903H188.745L188.193 39.8529ZM194.467 39.6893L193.821 38.6805L193.812 38.6865L193.802 38.6927L194.467 39.6893ZM196.376 37.4524L196.762 36.3186L195.686 35.9523L195.264 37.0076L196.376 37.4524ZM204.069 40.0712L205.171 40.5401L205.676 39.3531L204.455 38.9374L204.069 40.0712ZM200.959 44.3267L200.19 43.4086L200.184 43.4138L200.178 43.4191L200.959 44.3267ZM196.431 46.8363L196.795 47.9773L196.431 46.8363ZM181.919 35.5429L180.721 35.5317L180.71 36.7406H181.919V35.5429ZM181.973 29.7052V28.5075H180.787L180.775 29.694L181.973 29.7052ZM200.796 29.7052H201.993V28.5075H200.796V29.7052ZM200.796 35.5429V36.7406H201.993V35.5429H200.796ZM190.975 46.457C188.312 46.457 186.005 45.895 184.023 44.8049L182.869 46.9037C185.251 48.2141 187.965 48.8524 190.975 48.8524V46.457ZM184.037 44.8123C182.038 43.6796 180.484 42.1406 179.355 40.1824L177.28 41.3784C178.625 43.7121 180.49 45.5556 182.856 46.8963L184.037 44.8123ZM179.355 40.1824C178.237 38.2411 177.66 35.9793 177.66 33.3606H175.265C175.265 36.3431 175.925 39.0278 177.28 41.3784L179.355 40.1824ZM177.66 33.3606C177.66 30.7025 178.238 28.4231 179.355 26.4842L177.28 25.2882C175.924 27.6411 175.265 30.3446 175.265 33.3606H177.66ZM179.348 26.4972C180.512 24.5349 182.083 23.0133 184.078 21.9163L182.924 19.8174C180.553 21.1209 178.67 22.9456 177.288 25.2751L179.348 26.4972ZM184.078 21.9163C186.058 20.8273 188.381 20.2641 191.084 20.2641V17.8688C188.04 17.8688 185.308 18.5058 182.924 19.8174L184.078 21.9163ZM191.084 20.2641C193.466 20.2641 195.579 20.8318 197.454 21.95L198.681 19.8928C196.409 18.5378 193.867 17.8688 191.084 17.8688V20.2641ZM197.454 21.95C199.304 23.0537 200.792 24.7047 201.903 26.9609L204.052 25.9025C202.763 23.285 200.977 21.2624 198.681 19.8928L197.454 21.95ZM201.91 26.9737C203.038 29.1965 203.635 32.0343 203.635 35.5429H206.03C206.03 31.777 205.391 28.5408 204.046 25.8897L201.91 26.9737ZM204.833 34.3452H196.376V36.7406H204.833V34.3452ZM197.574 35.5429C197.574 33.2966 197.369 31.3626 196.931 29.7695L194.621 30.4047C194.983 31.7213 195.179 33.4246 195.179 35.5429H197.574ZM196.938 29.7966C196.535 28.1859 195.839 26.8463 194.762 25.9099L193.19 27.7174C193.786 28.2359 194.29 29.0785 194.614 30.3776L196.938 29.7966ZM194.803 25.9473C193.734 24.9266 192.34 24.4702 190.757 24.4702V26.8656C191.865 26.8656 192.618 27.173 193.149 27.68L194.803 25.9473ZM190.757 24.4702C189.286 24.4702 187.966 24.8302 186.881 25.6323L188.304 27.5586C188.892 27.124 189.682 26.8656 190.757 26.8656V24.4702ZM186.909 25.6122C185.813 26.3741 185.063 27.5049 184.601 28.89L186.874 29.6475C187.212 28.632 187.699 27.9806 188.277 27.5786L186.909 25.6122ZM184.605 28.8794C184.147 30.2111 183.94 31.8272 183.94 33.6879H186.335C186.335 31.9842 186.528 30.6542 186.87 29.6581L184.605 28.8794ZM183.94 33.6879C183.94 35.4447 184.231 36.9865 184.9 38.2362L187.012 37.1051C186.59 36.3179 186.335 35.2046 186.335 33.6879H183.94ZM184.925 38.2812C185.608 39.433 186.51 40.3281 187.64 40.9155L188.745 38.7903C188.056 38.4321 187.468 37.8723 186.986 37.06L184.925 38.2812ZM187.64 40.9155C188.731 41.4828 189.923 41.7599 191.193 41.7599V39.3645C190.282 39.3645 189.473 39.1687 188.745 38.7903L187.64 40.9155ZM191.193 41.7599C192.68 41.7599 194.018 41.4281 195.131 40.6858L193.802 38.6927C193.17 39.1143 192.325 39.3645 191.193 39.3645V41.7599ZM195.112 40.698C196.21 39.9958 197.022 39.0623 197.488 37.8972L195.264 37.0076C195.003 37.6611 194.543 38.2188 193.821 38.6805L195.112 40.698ZM195.99 38.5862L203.683 41.205L204.455 38.9374L196.762 36.3186L195.99 38.5862ZM202.967 39.6022C202.309 41.1482 201.383 42.4095 200.19 43.4086L201.728 45.2447C203.227 43.9888 204.374 42.4131 205.171 40.5401L202.967 39.6022ZM200.178 43.4191C198.995 44.4375 197.629 45.1968 196.067 45.6953L196.795 47.9773C198.652 47.3847 200.305 46.4709 201.741 45.2342L200.178 43.4191ZM196.067 45.6953C194.483 46.2007 192.788 46.457 190.975 46.457V48.8524C193.017 48.8524 194.959 48.5632 196.795 47.9773L196.067 45.6953ZM183.116 35.5541L183.171 29.7164L180.775 29.694L180.721 35.5317L183.116 35.5541ZM181.973 30.9029H200.796V28.5075H181.973V30.9029ZM199.598 29.7052V35.5429H201.993V29.7052H199.598ZM200.796 34.3452H181.919V36.7406H200.796V34.3452Z" fill="black" mask="url(#path-6-outside-1_1107_81)"/>
<path d="M83.1845 103.817L86.2959 104.865C87.1549 105.151 87.842 105.818 88.1283 106.694L89.1782 109.8C90.0753 112.487 93.8548 112.43 94.6946 109.743L98.2259 98.4054C98.9131 96.1569 96.8325 94.0608 94.5992 94.7659L83.2227 98.2911C80.5504 99.1295 80.5122 102.921 83.1845 103.817Z" fill="#22F55D"/>
<g clip-path="url(#clip0_1107_81)">
<rect x="61.5469" y="105.629" width="25.2268" height="16.4268" rx="8.21338" fill="#22F55D"/>
<path d="M71.2976 114.588L70.6699 114.388L71.9957 112.182H72.776L71.2976 114.588ZM70.6347 116.289V114.318H71.3152V116.289H70.6347ZM70.6523 114.588L69.1739 112.182H69.9541L71.28 114.388L70.6523 114.588ZM74.0885 116.359C73.7951 116.359 73.5331 116.295 73.3023 116.166C73.0755 116.033 72.8975 115.851 72.7684 115.62C72.6394 115.39 72.5748 115.124 72.5748 114.822C72.5748 114.521 72.6374 114.255 72.7626 114.025C72.8917 113.794 73.0696 113.614 73.2965 113.485C73.5233 113.352 73.7834 113.285 74.0767 113.285C74.3701 113.285 74.6301 113.352 74.857 113.485C75.0838 113.614 75.2598 113.794 75.385 114.025C75.5141 114.255 75.5786 114.521 75.5786 114.822C75.5786 115.124 75.516 115.39 75.3909 115.62C75.2657 115.851 75.0897 116.033 74.8629 116.166C74.636 116.295 74.3779 116.359 74.0885 116.359ZM74.0885 115.755C74.2488 115.755 74.3916 115.716 74.5167 115.638C74.6419 115.556 74.7397 115.446 74.8101 115.309C74.8805 115.169 74.9157 115.006 74.9157 114.822C74.9157 114.639 74.8785 114.478 74.8042 114.341C74.7338 114.201 74.636 114.091 74.5109 114.013C74.3857 113.931 74.241 113.89 74.0767 113.89C73.9125 113.89 73.7677 113.929 73.6426 114.007C73.5174 114.085 73.4197 114.195 73.3493 114.335C73.2789 114.476 73.2437 114.639 73.2437 114.822C73.2437 115.006 73.2789 115.169 73.3493 115.309C73.4236 115.446 73.5233 115.556 73.6485 115.638C73.7775 115.716 73.9242 115.755 74.0885 115.755ZM78.1133 116.289L78.0781 115.749V113.356H78.7293V116.289H78.1133ZM76.0835 115.034V113.356H76.7405V114.858L76.0835 115.034ZM76.7405 114.858C76.7405 115.088 76.7679 115.268 76.8227 115.397C76.8774 115.526 76.9517 115.616 77.0456 115.667C77.1434 115.718 77.2548 115.743 77.38 115.743C77.6029 115.747 77.775 115.675 77.8963 115.526C78.0175 115.378 78.0781 115.165 78.0781 114.887H78.3245C78.3245 115.196 78.2776 115.462 78.1837 115.685C78.0938 115.904 77.9647 116.072 77.7965 116.189C77.6323 116.303 77.4348 116.359 77.204 116.359C76.8481 116.359 76.5723 116.25 76.3768 116.031C76.1812 115.812 76.0835 115.479 76.0835 115.034L76.7405 114.858Z" fill="black"/>
</g>
<path d="M160.68 20.3967L164.171 19.2209C165.135 18.9002 165.906 18.152 166.227 17.1686L167.405 13.684C168.411 10.6697 172.651 10.7338 173.594 13.7481L177.555 26.468C178.326 28.9906 175.992 31.3422 173.487 30.5512L160.723 26.5963C157.725 25.6556 157.682 21.4014 160.68 20.3967Z" fill="#22F55D"/>
<g clip-path="url(#clip1_1107_81)">
<rect width="45.3514" height="18.3732" rx="9.18658" transform="matrix(1 0 0 -1 119.332 18.3711)" fill="#22F55D"/>
<path d="M130.32 11.2324L128.523 6.62512H129.287L131.129 11.2324H130.32ZM126.641 11.2324L128.477 6.62512H129.247L127.45 11.2324H126.641ZM127.503 10.1003V9.42241H130.261V10.1003H127.503ZM131.592 11.2324V6.62512H132.329V11.2324H131.592ZM134.615 11.3114C134.295 11.3114 134.009 11.239 133.759 11.0942C133.514 10.945 133.318 10.741 133.173 10.4821C133.033 10.2232 132.963 9.92482 132.963 9.58696C132.963 9.24909 133.035 8.95071 133.18 8.69182C133.325 8.43293 133.522 8.23109 133.772 8.08629C134.027 7.9371 134.317 7.86251 134.641 7.86251C134.935 7.86251 135.198 7.93929 135.431 8.09287C135.668 8.24206 135.857 8.45926 135.997 8.74448C136.138 9.02969 136.208 9.36975 136.208 9.76467H135.464C135.464 9.47945 135.429 9.2447 135.359 9.06041C135.293 8.87611 135.196 8.74009 135.069 8.65233C134.946 8.56018 134.795 8.51411 134.615 8.51411C134.426 8.51411 134.264 8.5558 134.128 8.63917C133.992 8.72254 133.889 8.8454 133.818 9.00775C133.748 9.16572 133.713 9.36537 133.713 9.6067C133.713 9.82171 133.755 10.006 133.838 10.1596C133.926 10.3132 134.042 10.4316 134.187 10.515C134.336 10.594 134.501 10.6335 134.681 10.6335C134.878 10.6335 135.041 10.5896 135.168 10.5018C135.295 10.4097 135.394 10.2934 135.464 10.153L136.142 10.4426C136.05 10.6181 135.931 10.7717 135.786 10.9033C135.646 11.035 135.477 11.1359 135.28 11.2061C135.087 11.2763 134.865 11.3114 134.615 11.3114ZM133.45 9.76467V9.17888H135.819V9.76467H133.45ZM137.391 7.32937C137.268 7.32937 137.163 7.2855 137.075 7.19774C136.992 7.10998 136.95 7.00686 136.95 6.88839C136.95 6.76553 136.992 6.66241 137.075 6.57904C137.163 6.49128 137.268 6.4474 137.391 6.4474C137.509 6.4474 137.613 6.49128 137.7 6.57904C137.788 6.66241 137.832 6.76553 137.832 6.88839C137.832 7.00686 137.788 7.10998 137.7 7.19774C137.613 7.2855 137.509 7.32937 137.391 7.32937ZM136.66 12.6475C136.445 12.6475 136.217 12.5839 135.976 12.4566L136.272 11.8445C136.351 11.884 136.423 11.9125 136.489 11.9301C136.555 11.952 136.61 11.963 136.654 11.963C136.9 11.963 137.022 11.805 137.022 11.4891V7.94149H137.753V11.5286C137.753 11.8884 137.659 12.1649 137.47 12.3579C137.286 12.551 137.016 12.6475 136.66 12.6475ZM140.624 11.2324L140.591 10.6137V9.54088C140.591 9.3171 140.567 9.13061 140.519 8.98142C140.471 8.83223 140.394 8.71815 140.289 8.63917C140.188 8.56018 140.054 8.52069 139.887 8.52069C139.733 8.52069 139.597 8.5536 139.479 8.61942C139.36 8.68524 139.262 8.78616 139.183 8.92219L138.511 8.68524C138.586 8.54044 138.683 8.40441 138.801 8.27716C138.919 8.14991 139.069 8.04899 139.249 7.9744C139.433 7.8998 139.65 7.86251 139.9 7.86251C140.221 7.86251 140.486 7.92174 140.697 8.04022C140.912 8.15869 141.072 8.33421 141.177 8.56677C141.282 8.79933 141.335 9.08673 141.335 9.42899L141.315 11.2324H140.624ZM139.69 11.3114C139.295 11.3114 138.988 11.2236 138.768 11.0481C138.553 10.8726 138.446 10.6247 138.446 10.3044C138.446 9.96212 138.56 9.70104 138.788 9.52114C139.02 9.34123 139.343 9.25128 139.755 9.25128H140.637V9.81732H139.992C139.698 9.81732 139.492 9.85901 139.374 9.94238C139.255 10.0214 139.196 10.1354 139.196 10.2846C139.196 10.4119 139.246 10.5128 139.347 10.5874C139.453 10.6576 139.597 10.6927 139.782 10.6927C139.944 10.6927 140.084 10.6554 140.203 10.5808C140.326 10.5018 140.42 10.4009 140.486 10.2781C140.556 10.1508 140.591 10.0148 140.591 9.86998H140.861C140.861 10.3175 140.765 10.6708 140.572 10.9297C140.383 11.1842 140.089 11.3114 139.69 11.3114ZM142.082 11.2324V7.94149H142.773L142.819 8.54702V11.2324H142.082ZM144.313 11.2324V9.54746L145.05 9.35001V11.2324H144.313ZM144.313 9.54746C144.313 9.28419 144.282 9.08235 144.221 8.94193C144.164 8.79713 144.08 8.69621 143.971 8.63917C143.865 8.58212 143.74 8.5536 143.595 8.5536C143.35 8.54921 143.159 8.63039 143.023 8.79713C142.887 8.96387 142.819 9.20301 142.819 9.51455H142.542C142.542 9.16791 142.593 8.87173 142.694 8.626C142.795 8.37589 142.939 8.18721 143.128 8.05996C143.317 7.92832 143.54 7.86251 143.799 7.86251C144.199 7.86251 144.506 7.98537 144.721 8.23109C144.94 8.47243 145.05 8.8454 145.05 9.35001L144.313 9.54746ZM148.173 11.2324L148.14 10.6203V6.62512H148.87V11.2324H148.173ZM147.1 11.3114C146.802 11.3114 146.54 11.2412 146.317 11.1008C146.097 10.956 145.924 10.7541 145.797 10.4953C145.674 10.2364 145.612 9.9336 145.612 9.58696C145.612 9.23592 145.674 8.93316 145.797 8.67866C145.924 8.41977 146.097 8.22012 146.317 8.07971C146.54 7.93491 146.802 7.86251 147.1 7.86251C147.376 7.86251 147.613 7.93491 147.811 8.07971C148.013 8.22012 148.166 8.41977 148.271 8.67866C148.377 8.93316 148.429 9.23592 148.429 9.58696C148.429 9.9336 148.377 10.2364 148.271 10.4953C148.166 10.7541 148.013 10.956 147.811 11.1008C147.613 11.2412 147.376 11.3114 147.1 11.3114ZM147.284 10.6401C147.451 10.6401 147.598 10.5962 147.725 10.5084C147.857 10.4163 147.958 10.2912 148.028 10.1333C148.103 9.97529 148.14 9.79319 148.14 9.58696C148.14 9.38072 148.103 9.19863 148.028 9.04066C147.958 8.8827 147.857 8.75983 147.725 8.67208C147.598 8.58432 147.449 8.54044 147.278 8.54044C147.102 8.54044 146.946 8.58432 146.81 8.67208C146.674 8.75983 146.567 8.8827 146.488 9.04066C146.413 9.19863 146.374 9.38072 146.369 9.58696C146.374 9.79319 146.413 9.97529 146.488 10.1333C146.567 10.2912 146.674 10.4163 146.81 10.5084C146.951 10.5962 147.109 10.6401 147.284 10.6401ZM150.172 9.48165C150.172 9.12622 150.24 8.83443 150.376 8.60626C150.512 8.37809 150.688 8.20915 150.903 8.09945C151.122 7.98537 151.351 7.92832 151.588 7.92832V8.63258C151.386 8.63258 151.195 8.66111 151.015 8.71815C150.839 8.7708 150.697 8.85856 150.587 8.98142C150.477 9.10429 150.423 9.26664 150.423 9.46848L150.172 9.48165ZM149.685 11.2324V7.94149H150.423V11.2324H149.685ZM153.59 11.3114C153.261 11.3114 152.967 11.239 152.708 11.0942C152.454 10.945 152.254 10.741 152.109 10.4821C151.965 10.2232 151.892 9.92482 151.892 9.58696C151.892 9.24909 151.962 8.95071 152.103 8.69182C152.248 8.43293 152.447 8.23109 152.702 8.08629C152.956 7.9371 153.248 7.86251 153.577 7.86251C153.906 7.86251 154.198 7.9371 154.452 8.08629C154.707 8.23109 154.904 8.43293 155.045 8.69182C155.19 8.95071 155.262 9.24909 155.262 9.58696C155.262 9.92482 155.192 10.2232 155.051 10.4821C154.911 10.741 154.714 10.945 154.459 11.0942C154.205 11.239 153.915 11.3114 153.59 11.3114ZM153.59 10.6335C153.77 10.6335 153.93 10.5896 154.071 10.5018C154.211 10.4097 154.321 10.2868 154.4 10.1333C154.479 9.97529 154.518 9.79319 154.518 9.58696C154.518 9.38072 154.477 9.20082 154.393 9.04724C154.314 8.88928 154.205 8.76642 154.064 8.67866C153.924 8.58651 153.761 8.54044 153.577 8.54044C153.393 8.54044 153.23 8.58432 153.09 8.67208C152.95 8.75983 152.84 8.8827 152.761 9.04066C152.682 9.19863 152.642 9.38072 152.642 9.58696C152.642 9.79319 152.682 9.97529 152.761 10.1333C152.844 10.2868 152.956 10.4097 153.097 10.5018C153.241 10.5896 153.406 10.6335 153.59 10.6335Z" fill="black"/>
</g>
<path d="M101.609 94.6074V56.417H110.12V94.6074H101.609Z" fill="#22F55D"/>
<path d="M99.5566 93.2056V55.5533C99.5566 55.388 99.6907 55.2539 99.8561 55.2539H107.716C107.881 55.2539 108.015 55.388 108.015 55.5533V93.2056C108.015 93.3709 107.881 93.505 107.716 93.505H99.8561C99.6907 93.505 99.5566 93.3709 99.5566 93.2056Z" stroke="black" stroke-width="1.19769"/>
<path d="M375.556 103.348C373.774 103.348 372.101 103.093 370.537 102.584C369.009 102.039 367.682 101.293 366.554 100.347C365.427 99.3653 364.59 98.1833 364.045 96.8011L371.028 93.855C371.501 94.8007 372.155 95.5099 372.992 95.9828C373.829 96.4192 374.683 96.6375 375.556 96.6375C376.466 96.6375 377.175 96.492 377.684 96.201C378.193 95.8736 378.448 95.4372 378.448 94.8916C378.448 94.3097 378.175 93.855 377.629 93.5277C377.12 93.2003 376.375 92.9093 375.393 92.6547L373.047 92.0546C370.501 91.3999 368.536 90.3269 367.154 88.8357C365.809 87.3081 365.136 85.544 365.136 83.5436C365.136 80.743 366.1 78.5788 368.027 77.0512C369.955 75.5236 372.628 74.7598 376.047 74.7598C377.975 74.7598 379.666 75.0144 381.121 75.5236C382.612 76.0328 383.849 76.7602 384.831 77.7059C385.849 78.6152 386.577 79.6882 387.013 80.9248L380.248 83.7073C379.994 82.9798 379.466 82.4343 378.666 82.0705C377.902 81.6704 377.047 81.4704 376.102 81.4704C375.302 81.4704 374.683 81.6523 374.247 82.016C373.81 82.3433 373.592 82.798 373.592 83.3799C373.592 83.8164 373.847 84.1983 374.356 84.5256C374.902 84.8166 375.684 85.0894 376.702 85.344L379.594 86.0532C381.303 86.4897 382.74 87.1626 383.904 88.0719C385.067 88.9448 385.94 89.9814 386.522 91.1817C387.104 92.3456 387.395 93.6004 387.395 94.9462C387.395 96.6556 386.886 98.1469 385.868 99.4199C384.886 100.657 383.503 101.62 381.721 102.311C379.939 103.003 377.884 103.348 375.556 103.348Z" fill="#22F55D"/>
<mask id="path-17-outside-2_1107_81" maskUnits="userSpaceOnUse" x="363.418" y="74.3398" width="27" height="32" fill="black">
<rect fill="white" x="363.418" y="74.3398" width="27" height="32"/>
<path d="M376.904 104.995C375.122 104.995 373.449 104.74 371.885 104.231C370.357 103.685 369.029 102.94 367.902 101.994C366.774 101.012 365.938 99.8297 365.392 98.4476L372.376 95.5015C372.848 96.4472 373.503 97.1564 374.34 97.6292C375.176 98.0657 376.031 98.2839 376.904 98.2839C377.813 98.2839 378.522 98.1384 379.032 97.8475C379.541 97.5201 379.795 97.0837 379.795 96.5381C379.795 95.9561 379.523 95.5015 378.977 95.1741C378.468 94.8468 377.722 94.5558 376.74 94.3012L374.394 93.7011C371.848 93.0464 369.884 91.9734 368.502 90.4822C367.156 88.9546 366.483 87.1905 366.483 85.1901C366.483 82.3894 367.447 80.2253 369.375 78.6977C371.303 77.1701 373.976 76.4063 377.395 76.4063C379.323 76.4063 381.014 76.6609 382.469 77.1701C383.96 77.6793 385.197 78.4067 386.179 79.3524C387.197 80.2617 387.925 81.3347 388.361 82.5713L381.596 85.3538C381.341 84.6263 380.814 84.0807 380.014 83.717C379.25 83.3169 378.395 83.1169 377.449 83.1169C376.649 83.1169 376.031 83.2987 375.595 83.6625C375.158 83.9898 374.94 84.4445 374.94 85.0264C374.94 85.4629 375.194 85.8448 375.704 86.1721C376.249 86.4631 377.031 86.7359 378.05 86.9905L380.941 87.6997C382.651 88.1362 384.087 88.8091 385.251 89.7184C386.415 90.5913 387.288 91.6279 387.87 92.8282C388.452 93.9921 388.743 95.2469 388.743 96.5926C388.743 98.3021 388.234 99.7934 387.215 101.066C386.233 102.303 384.851 103.267 383.069 103.958C381.287 104.649 379.232 104.995 376.904 104.995Z"/>
</mask>
<path d="M371.885 104.231L371.482 105.359L371.498 105.364L371.514 105.37L371.885 104.231ZM367.902 101.994L367.115 102.897L367.124 102.904L367.132 102.912L367.902 101.994ZM365.392 98.4476L364.927 97.3441L363.849 97.7989L364.278 98.8874L365.392 98.4476ZM372.376 95.5015L373.447 94.9659L372.945 93.9615L371.91 94.398L372.376 95.5015ZM374.34 97.6292L373.75 98.6719L373.768 98.6818L373.786 98.6911L374.34 97.6292ZM379.032 97.8475L379.626 98.8874L379.653 98.8718L379.679 98.8549L379.032 97.8475ZM378.977 95.1741L378.329 96.1816L378.345 96.1916L378.361 96.2011L378.977 95.1741ZM376.74 94.3012L377.041 93.1419L377.037 93.1409L376.74 94.3012ZM374.394 93.7011L374.096 94.861L374.097 94.8614L374.394 93.7011ZM368.502 90.4822L367.603 91.2739L367.613 91.2852L367.624 91.2963L368.502 90.4822ZM369.375 78.6977L368.631 77.759L369.375 78.6977ZM382.469 77.1701L382.073 78.3006L382.082 78.3035L382.469 77.1701ZM386.179 79.3524L385.348 80.2151L385.364 80.2308L385.381 80.2458L386.179 79.3524ZM388.361 82.5713L388.817 83.679L389.869 83.246L389.49 82.1727L388.361 82.5713ZM381.596 85.3538L380.465 85.7494L380.883 86.942L382.051 86.4614L381.596 85.3538ZM380.014 83.717L379.458 84.778L379.488 84.7935L379.518 84.8074L380.014 83.717ZM375.595 83.6625L376.313 84.6206L376.338 84.6022L376.361 84.5825L375.595 83.6625ZM375.704 86.1721L375.056 87.1796L375.097 87.206L375.14 87.2289L375.704 86.1721ZM378.05 86.9905L377.759 88.1524L377.764 88.1537L378.05 86.9905ZM380.941 87.6997L381.237 86.5392L381.226 86.5365L380.941 87.6997ZM385.251 89.7184L384.514 90.6622L384.523 90.6694L384.533 90.6765L385.251 89.7184ZM387.87 92.8282L386.792 93.3507L386.796 93.3573L386.799 93.3638L387.87 92.8282ZM387.215 101.066L386.28 100.318L386.277 100.322L387.215 101.066ZM383.069 103.958L383.502 105.075L383.069 103.958ZM376.904 103.797C375.237 103.797 373.69 103.559 372.255 103.092L371.514 105.37C373.207 105.921 375.006 106.192 376.904 106.192V103.797ZM372.287 103.103C370.88 102.6 369.68 101.922 368.672 101.076L367.132 102.912C368.379 103.957 369.834 104.77 371.482 105.359L372.287 103.103ZM368.688 101.091C367.705 100.234 366.981 99.2104 366.506 98.0079L364.278 98.8874C364.895 100.449 365.844 101.79 367.115 102.897L368.688 101.091ZM365.858 99.5511L372.841 96.605L371.91 94.398L364.927 97.3441L365.858 99.5511ZM371.304 96.0371C371.873 97.1737 372.686 98.0701 373.75 98.6719L374.929 96.5866C374.321 96.2427 373.824 95.7206 373.447 94.9659L371.304 96.0371ZM373.786 98.6911C374.779 99.2094 375.823 99.4816 376.904 99.4816V97.0863C376.239 97.0863 375.573 96.922 374.894 96.5674L373.786 98.6911ZM376.904 99.4816C377.917 99.4816 378.862 99.3236 379.626 98.8874L378.437 96.8076C378.182 96.9533 377.71 97.0863 376.904 97.0863V99.4816ZM379.679 98.8549C380.487 98.3358 380.993 97.5414 380.993 96.5381H378.598C378.598 96.6163 378.582 96.6506 378.57 96.6711C378.555 96.6968 378.511 96.7585 378.384 96.84L379.679 98.8549ZM380.993 96.5381C380.993 95.4902 380.459 94.6666 379.593 94.1471L378.361 96.2011C378.499 96.2838 378.547 96.3487 378.564 96.3768C378.578 96.4001 378.598 96.4423 378.598 96.5381H380.993ZM379.625 94.1667C378.961 93.7397 378.075 93.4099 377.041 93.1419L376.44 95.4606C377.37 95.7018 377.975 95.9539 378.329 96.1816L379.625 94.1667ZM377.037 93.1409L374.691 92.5408L374.097 94.8614L376.443 95.4615L377.037 93.1409ZM374.693 92.5411C372.305 91.9271 370.567 90.9479 369.38 89.668L367.624 91.2963C369.202 92.999 371.392 94.1657 374.096 94.861L374.693 92.5411ZM369.401 89.6905C368.244 88.3773 367.681 86.8934 367.681 85.1901H365.286C365.286 87.4876 366.069 89.5318 367.603 91.2739L369.401 89.6905ZM367.681 85.1901C367.681 82.6979 368.52 80.9034 370.119 79.6364L368.631 77.759C366.375 79.5472 365.286 82.081 365.286 85.1901H367.681ZM370.119 79.6364C371.766 78.3312 374.142 77.604 377.395 77.604V75.2086C373.81 75.2086 370.839 76.009 368.631 77.759L370.119 79.6364ZM377.395 77.604C379.22 77.604 380.773 77.8454 382.073 78.3005L382.864 76.0396C381.255 75.4764 379.425 75.2086 377.395 75.2086V77.604ZM382.082 78.3035C383.433 78.7649 384.51 79.4087 385.348 80.2151L387.009 78.4897C385.883 77.4048 384.487 76.5937 382.856 76.0367L382.082 78.3035ZM385.381 80.2458C386.255 81.0265 386.865 81.9315 387.232 82.9699L389.49 82.1727C388.984 80.7379 388.139 79.4969 386.976 78.459L385.381 80.2458ZM387.905 81.4636L381.14 84.2461L382.051 86.4614L388.817 83.679L387.905 81.4636ZM382.726 84.9581C382.348 83.8778 381.561 83.1048 380.509 82.6267L379.518 84.8074C380.066 85.0566 380.334 85.3749 380.465 85.7494L382.726 84.9581ZM380.569 82.6561C379.618 82.1577 378.57 81.9192 377.449 81.9192V84.3146C378.221 84.3146 378.882 84.4762 379.458 84.778L380.569 82.6561ZM377.449 81.9192C376.482 81.9192 375.553 82.1383 374.828 82.7424L376.361 84.5825C376.509 84.4592 376.817 84.3146 377.449 84.3146V81.9192ZM374.876 82.7043C374.115 83.2748 373.742 84.0967 373.742 85.0264H376.138C376.138 84.7922 376.201 84.7048 376.313 84.6206L374.876 82.7043ZM373.742 85.0264C373.742 86.0178 374.35 86.7256 375.056 87.1796L376.351 85.1646C376.193 85.0631 376.139 84.9934 376.127 84.9758C376.123 84.9689 376.127 84.9732 376.131 84.9877C376.136 85.0028 376.138 85.0171 376.138 85.0264H373.742ZM375.14 87.2289C375.811 87.5869 376.702 87.8881 377.759 88.1524L378.34 85.8286C377.361 85.5837 376.687 85.3392 376.267 85.1153L375.14 87.2289ZM377.764 88.1537L380.656 88.8629L381.226 86.5365L378.335 85.8273L377.764 88.1537ZM380.645 88.8602C382.225 89.2635 383.503 89.8726 384.514 90.6622L385.989 88.7746C384.671 87.7455 383.077 87.0089 381.237 86.5393L380.645 88.8602ZM384.533 90.6765C385.558 91.4455 386.301 92.3374 386.792 93.3507L388.948 92.3056C388.275 90.9184 387.272 89.7371 385.97 88.7602L384.533 90.6765ZM386.799 93.3638C387.295 94.3556 387.545 95.4263 387.545 96.5926H389.941C389.941 95.0675 389.609 93.6285 388.941 92.2925L386.799 93.3638ZM387.545 96.5926C387.545 98.0444 387.12 99.2684 386.28 100.318L388.151 101.815C389.348 100.318 389.941 98.5598 389.941 96.5926H387.545ZM386.277 100.322C385.453 101.36 384.262 102.211 382.636 102.841L383.502 105.075C385.441 104.323 387.014 103.246 388.153 101.811L386.277 100.322ZM382.636 102.841C381.018 103.469 379.115 103.797 376.904 103.797V106.192C379.348 106.192 381.555 105.829 383.502 105.075L382.636 102.841Z" fill="black" mask="url(#path-17-outside-2_1107_81)"/>
<path d="M355.099 110.605L357.772 111.506C358.51 111.751 359.1 112.324 359.346 113.077L360.248 115.745C361.019 118.053 364.265 118.004 364.987 115.696L368.02 105.957C368.61 104.025 366.823 102.225 364.905 102.83L355.132 105.858C352.837 106.579 352.804 109.836 355.099 110.605Z" fill="#22F55D"/>
<g clip-path="url(#clip2_1107_81)">
<rect x="328.246" y="112.15" width="30.2728" height="14.068" rx="7.03398" fill="#22F55D"/>
<path d="M338.851 121.158L337.476 117.63H338.06L339.471 121.158H338.851ZM336.034 121.158L337.44 117.63H338.03L336.654 121.158H336.034ZM336.694 120.291V119.772H338.806V120.291H336.694ZM340.198 119.818C340.198 119.546 340.25 119.322 340.354 119.147C340.458 118.973 340.593 118.843 340.758 118.759C340.925 118.672 341.1 118.628 341.282 118.628V119.168C341.127 119.168 340.981 119.189 340.843 119.233C340.709 119.273 340.6 119.341 340.516 119.435C340.432 119.529 340.39 119.653 340.39 119.808L340.198 119.818ZM339.825 121.158V118.638H340.39V121.158H339.825ZM341.691 121.158L341.696 118.638H342.256L342.251 121.158H341.691ZM341.973 118.16C341.883 118.16 341.804 118.128 341.737 118.064C341.673 117.997 341.641 117.918 341.641 117.827C341.641 117.736 341.673 117.659 341.737 117.595C341.804 117.531 341.883 117.499 341.973 117.499C342.064 117.499 342.141 117.531 342.205 117.595C342.272 117.659 342.306 117.736 342.306 117.827C342.306 117.918 342.272 117.997 342.205 118.064C342.141 118.128 342.064 118.16 341.973 118.16ZM344.443 121.158L344.418 120.684V119.863C344.418 119.692 344.399 119.549 344.362 119.435C344.325 119.32 344.266 119.233 344.186 119.173C344.109 119.112 344.006 119.082 343.878 119.082C343.761 119.082 343.657 119.107 343.566 119.157C343.475 119.208 343.4 119.285 343.339 119.389L342.825 119.208C342.882 119.097 342.956 118.993 343.047 118.895C343.138 118.798 343.252 118.721 343.39 118.664C343.531 118.606 343.697 118.578 343.889 118.578C344.134 118.578 344.337 118.623 344.498 118.714C344.663 118.805 344.786 118.939 344.866 119.117C344.947 119.295 344.987 119.515 344.987 119.777L344.972 121.158H344.443ZM343.727 121.219C343.425 121.219 343.19 121.151 343.022 121.017C342.857 120.883 342.775 120.693 342.775 120.448C342.775 120.186 342.862 119.986 343.037 119.848C343.215 119.71 343.462 119.641 343.778 119.641H344.453V120.075H343.959C343.734 120.075 343.576 120.107 343.485 120.17C343.395 120.231 343.349 120.318 343.349 120.433C343.349 120.53 343.388 120.607 343.465 120.664C343.546 120.718 343.657 120.745 343.798 120.745C343.922 120.745 344.03 120.716 344.12 120.659C344.214 120.599 344.287 120.522 344.337 120.427C344.391 120.33 344.418 120.226 344.418 120.115H344.624C344.624 120.458 344.55 120.728 344.403 120.926C344.258 121.121 344.033 121.219 343.727 121.219ZM345.559 121.158V118.638H346.088L346.123 119.102V121.158H345.559ZM347.267 121.158V119.868L347.832 119.717V121.158H347.267ZM347.267 119.868C347.267 119.666 347.244 119.512 347.197 119.404C347.153 119.294 347.089 119.216 347.005 119.173C346.924 119.129 346.829 119.107 346.718 119.107C346.53 119.104 346.384 119.166 346.279 119.294C346.175 119.421 346.123 119.604 346.123 119.843H345.911C345.911 119.577 345.95 119.351 346.027 119.163C346.105 118.971 346.216 118.827 346.36 118.729C346.504 118.628 346.676 118.578 346.874 118.578C347.18 118.578 347.415 118.672 347.58 118.86C347.748 119.045 347.832 119.331 347.832 119.717L347.267 119.868ZM349.93 121.158L349.905 120.684V119.863C349.905 119.692 349.887 119.549 349.85 119.435C349.813 119.32 349.754 119.233 349.673 119.173C349.596 119.112 349.494 119.082 349.366 119.082C349.248 119.082 349.144 119.107 349.053 119.157C348.963 119.208 348.887 119.285 348.827 119.389L348.313 119.208C348.37 119.097 348.444 118.993 348.534 118.895C348.625 118.798 348.739 118.721 348.877 118.664C349.018 118.606 349.184 118.578 349.376 118.578C349.621 118.578 349.825 118.623 349.986 118.714C350.15 118.805 350.273 118.939 350.354 119.117C350.434 119.295 350.475 119.515 350.475 119.777L350.459 121.158H349.93ZM349.215 121.219C348.912 121.219 348.677 121.151 348.509 121.017C348.345 120.883 348.262 120.693 348.262 120.448C348.262 120.186 348.35 119.986 348.524 119.848C348.702 119.71 348.949 119.641 349.265 119.641H349.94V120.075H349.447C349.221 120.075 349.064 120.107 348.973 120.17C348.882 120.231 348.837 120.318 348.837 120.433C348.837 120.53 348.875 120.607 348.953 120.664C349.033 120.718 349.144 120.745 349.285 120.745C349.41 120.745 349.517 120.716 349.608 120.659C349.702 120.599 349.774 120.522 349.825 120.427C349.878 120.33 349.905 120.226 349.905 120.115H350.112C350.112 120.458 350.038 120.728 349.89 120.926C349.746 121.121 349.52 121.219 349.215 121.219Z" fill="black"/>
</g>
<path fill-rule="evenodd" clip-rule="evenodd" d="M81.135 14.4816C81.4007 14.0351 81.64 13.5672 81.8897 13.0161C82.5701 11.5145 82.9104 10.7637 83.4217 10.7637C83.933 10.7637 84.2732 11.5145 84.9536 13.0161C85.2033 13.5672 85.4427 14.0351 85.7084 14.4816C87.1488 16.9024 89.1824 18.9188 91.6186 20.3418C92.0649 20.6025 92.5348 20.8381 93.0893 21.0843C94.6183 21.7631 95.3828 22.1025 95.3828 22.6151C95.3828 23.1277 94.6183 23.4671 93.0893 24.1459C92.5348 24.392 92.0649 24.6277 91.6186 24.8883C89.1824 26.3113 87.1488 28.3277 85.7084 30.7485C85.4427 31.195 85.2033 31.663 84.9536 32.214C84.2732 33.7157 83.933 34.4665 83.4217 34.4665C82.9104 34.4665 82.5701 33.7157 81.8897 32.214C81.64 31.663 81.4007 31.195 81.135 30.7485C79.6946 28.3277 77.6609 26.3113 75.2248 24.8883C74.7785 24.6277 74.3085 24.392 73.7541 24.1459C72.2251 23.4671 71.4605 23.1277 71.4605 22.6151C71.4605 22.1025 72.2251 21.7631 73.7541 21.0843C74.3085 20.8381 74.7785 20.6025 75.2248 20.3418C77.6609 18.9188 79.6946 16.9024 81.135 14.4816Z" fill="black"/>
<defs>
<clipPath id="clip0_1107_81">
<rect width="25.8135" height="16.3724" fill="white" transform="translate(61.252 105.629)"/>
</clipPath>
<clipPath id="clip1_1107_81">
<rect width="47.4446" height="18.3732" fill="white" transform="matrix(1 0 0 -1 117.703 18.3711)"/>
</clipPath>
<clipPath id="clip2_1107_81">
<rect width="31.5193" height="14.068" fill="white" transform="translate(327 112.15)"/>
</clipPath>
</defs>
</svg>
