<svg width="743" height="744" viewBox="0 0 743 744" fill="none" xmlns="http://www.w3.org/2000/svg">
<path d="M371.5 0.49974C290.376 0.499743 211.482 27.0539 146.869 76.1062C82.255 125.159 35.4736 194.012 13.6698 272.151C-8.13395 350.29 -3.76136 433.418 26.1197 508.838C56.0007 584.258 109.748 647.824 179.151 689.827C248.554 731.83 329.799 749.96 410.475 741.45C491.151 732.939 566.823 698.254 625.934 642.694C685.045 587.134 724.345 513.752 737.831 433.757C751.317 353.762 738.247 271.552 700.619 199.683L371.5 372L371.5 0.49974Z" fill="#22F55D"/>
</svg>
