<svg width="75" height="75" viewBox="0 0 75 75" fill="none" xmlns="http://www.w3.org/2000/svg">
<rect x="2.46578" y="1.96578" width="70.5684" height="70.5684" rx="35.2842" stroke="black" stroke-width="3.93157"/>
<path d="M47.8521 25.8345H50.7401M29.0801 17.1705H46.4081C52.7881 17.1705 57.9601 22.3425 57.9601 28.7225V46.0505C57.9601 52.4305 52.7881 57.6026 46.4081 57.6026H29.0801C22.7001 57.6026 17.5281 52.4305 17.5281 46.0505V28.7225C17.5281 22.3425 22.7001 17.1705 29.0801 17.1705ZM37.7441 46.0505C32.9591 46.0505 29.0801 42.1715 29.0801 37.3865C29.0801 32.6015 32.9591 28.7225 37.7441 28.7225C42.5291 28.7225 46.4081 32.6015 46.4081 37.3865C46.4081 42.1715 42.5291 46.0505 37.7441 46.0505Z" stroke="#070000" stroke-width="4.332"/>
</svg>
